%YAML 1.1
%TAG !u! tag:unity3d.com,2011:
--- !u!114 &11400000
MonoBehaviour:
  m_ObjectHideFlags: 0
  m_CorrespondingSourceObject: {fileID: 0}
  m_PrefabInstance: {fileID: 0}
  m_PrefabAsset: {fileID: 0}
  m_GameObject: {fileID: 0}
  m_Enabled: 1
  m_EditorHideFlags: 0
  m_Script: {fileID: 11500000, guid: ec9ce72b1db16a742af5f09dc22a4c20, type: 3}
  m_Name: TestWeapon
  m_EditorClassIdentifier: 
  itemType: {fileID: 0}
  prefab: {fileID: 0}
  fireRate: 0.1
  magazineBullets: 20
  maxBullets: 120
  recoilResetSpeed: 1
  recoilCurve:
    serializedVersion: 2
    m_Curve:
    - serializedVersion: 3
      time: -0.000000007450581
      value: 0
      inSlope: 0
      outSlope: 0
      tangentMode: 136
      weightedMode: 0
      inWeight: 0.33333334
      outWeight: 0.33333334
    - serializedVersion: 3
      time: 0.037212193
      value: 0.008726181
      inSlope: 0.23589791
      outSlope: 0.23589791
      tangentMode: 0
      weightedMode: 0
      inWeight: 0.33333334
      outWeight: 0.6656536
    - serializedVersion: 3
      time: 0.06674972
      value: -0.0040844567
      inSlope: 0
      outSlope: 0
      tangentMode: 136
      weightedMode: 0
      inWeight: 0.33333334
      outWeight: 0.33333334
    - serializedVersion: 3
      time: 0.1008196
      value: 0.015019059
      inSlope: 0
      outSlope: 0
      tangentMode: 136
      weightedMode: 0
      inWeight: 0.33333334
      outWeight: 0.33333334
    - serializedVersion: 3
      time: 0.12552997
      value: -0.014214575
      inSlope: 0
      outSlope: 0
      tangentMode: 136
      weightedMode: 0
      inWeight: 0.33333334
      outWeight: 0.33333334
    - serializedVersion: 3
      time: 0.145759
      value: 0.059729047
      inSlope: 0
      outSlope: 0
      tangentMode: 136
      weightedMode: 0
      inWeight: 0.33333334
      outWeight: 0.33333334
    - serializedVersion: 3
      time: 0.16429843
      value: 0.033635862
      inSlope: -1.6280603
      outSlope: -1.6280603
      tangentMode: 136
      weightedMode: 0
      inWeight: 0.33333334
      outWeight: 0.33333334
    - serializedVersion: 3
      time: 0.18637906
      value: -0.0064028557
      inSlope: 0
      outSlope: 0
      tangentMode: 136
      weightedMode: 0
      inWeight: 0.33333334
      outWeight: 0.33333334
    - serializedVersion: 3
      time: 0.20983441
      value: 0.06110722
      inSlope: 0
      outSlope: 0
      tangentMode: 136
      weightedMode: 0
      inWeight: 0.33333334
      outWeight: 0.33333334
    - serializedVersion: 3
      time: 0.24508592
      value: -0.019337788
      inSlope: 0
      outSlope: 0
      tangentMode: 136
      weightedMode: 0
      inWeight: 0.33333334
      outWeight: 0.33333334
    - serializedVersion: 3
      time: 0.26878813
      value: 0.037486613
      inSlope: 0
      outSlope: 0
      tangentMode: 136
      weightedMode: 0
      inWeight: 0.33333334
      outWeight: 0.33333334
    - serializedVersion: 3
      time: 0.29831332
      value: -0.022746723
      inSlope: 0
      outSlope: 0
      tangentMode: 136
      weightedMode: 0
      inWeight: 0.33333334
      outWeight: 0.33333334
    - serializedVersion: 3
      time: 0.3236461
      value: 0.024125226
      inSlope: 3.1420722
      outSlope: 3.1420722
      tangentMode: 0
      weightedMode: 0
      inWeight: 0.33333334
      outWeight: 0.37226552
    - serializedVersion: 3
      time: 0.3583653
      value: 0.092884466
      inSlope: 0
      outSlope: 0
      tangentMode: 136
      weightedMode: 0
      inWeight: 0.33333334
      outWeight: 0.33333334
    - serializedVersion: 3
      time: 0.39317217
      value: 0.018999927
      inSlope: -1.5584017
      outSlope: -1.5584017
      tangentMode: 0
      weightedMode: 0
      inWeight: 0.33333334
      outWeight: 0.7519448
    - serializedVersion: 3
      time: 0.42660186
      value: -0.017560065
      inSlope: 0.022856398
      outSlope: 0.022856398
      tangentMode: 0
      weightedMode: 0
      inWeight: 0.33333334
      outWeight: 0.6990928
    - serializedVersion: 3
      time: 0.45957246
      value: 0.025550317
      inSlope: -2.643547
      outSlope: -2.643547
      tangentMode: 0
      weightedMode: 0
      inWeight: 0.33333334
      outWeight: 0.14252283
    - serializedVersion: 3
      time: 0.5289801
      value: 0.053800642
      inSlope: 2.3999023
      outSlope: 2.3999023
      tangentMode: 0
      weightedMode: 0
      inWeight: 0.1388206
      outWeight: 0.33333334
    - serializedVersion: 3
      time: 0.5763597
      value: 0.096361294
      inSlope: -2.7499769
      outSlope: -2.7499769
      tangentMode: 0
      weightedMode: 0
      inWeight: 0.44632778
      outWeight: 0.33333334
    - serializedVersion: 3
      time: 0.61637896
      value: -0.016713426
      inSlope: 0
      outSlope: 0
      tangentMode: 136
      weightedMode: 0
      inWeight: 0.33333334
      outWeight: 0.33333334
    - serializedVersion: 3
      time: 0.6570367
      value: 0.054433595
      inSlope: 1.6227177
      outSlope: 1.6227177
      tangentMode: 136
      weightedMode: 0
      inWeight: 0.33333334
      outWeight: 0.33333334
    - serializedVersion: 3
      time: 0.70598584
      value: 0.12869325
      inSlope: 0
      outSlope: 0
      tangentMode: 136
      weightedMode: 0
      inWeight: 0.33333334
      outWeight: 0.33333334
    - serializedVersion: 3
      time: 0.75598687
      value: 0.03418191
      inSlope: 0
      outSlope: 0
      tangentMode: 136
      weightedMode: 0
      inWeight: 0.33333334
      outWeight: 0.33333334
    - serializedVersion: 3
      time: 0.8056863
      value: 0.14071843
      inSlope: 0
      outSlope: 0
      tangentMode: 136
      weightedMode: 0
      inWeight: 0.33333334
      outWeight: 0.33333334
    - serializedVersion: 3
      time: 0.86285096
      value: 0.08110356
      inSlope: -0.8027524
      outSlope: -0.8027524
      tangentMode: 136
      weightedMode: 0
      inWeight: 0.33333334
      outWeight: 0.33333334
    - serializedVersion: 3
      time: 0.90690964
      value: 0.059461147
      inSlope: 0
      outSlope: 0
      tangentMode: 136
      weightedMode: 0
      inWeight: 0.33333334
      outWeight: 0.33333334
    - serializedVersion: 3
      time: 0.9439804
      value: 0.08789495
      inSlope: 0
      outSlope: 0
      tangentMode: 136
      weightedMode: 0
      inWeight: 0.33333334
      outWeight: 0.33333334
    m_PreInfinity: 2
    m_PostInfinity: 2
    m_RotationOrder: 4
  recoilMultiplier: 5000
  recoilvalue: 15
  recoilSpeed: 0.2
  curveSpeed: 3
